[
  {
    "icon": "fas fa-laptop",
    "date": "2022年9月3日（土）",
    "title": "オンラインで参加する",
    "description": "YouTube Live & ニコニコ生放送",
    "link": "stream/"
  },
  {
    "icon": "fas fa-running",
    "date": "2022年9月4日（日）",
    "title": "現地で参加する",
    "description": "完全予約制（申込受付：8月22日〜9月2日）",
    "link": "tour/"
  }
]
